[0] Config.pm:340> INFO - This is Biber 2.4
[0] Config.pm:343> INFO - Logfile is 'meeting_slides.blg'
[43] biber:287> INFO - === Tue Dec 18, 2018, 09:07:29
[125] Biber.pm:348> INFO - Reading 'meeting_slides.bcf'
[259] Utils.pm:147> WARN - No data sources defined!
