\defcounter {refsection}{0}\relax 
\beamer@endinputifotherversion {3.36pt}
\defcounter {refsection}{0}\relax 
\headcommand {\slideentry {0}{0}{1}{1/1}{}{0}}
\defcounter {refsection}{0}\relax 
\headcommand {\beamer@framepages {1}{1}}
\defcounter {refsection}{0}\relax 
\headcommand {\slideentry {1}{0}{1}{2/2}{}{0}}
\defcounter {refsection}{0}\relax 
\headcommand {\beamer@framepages {2}{2}}
\defcounter {refsection}{0}\relax 
\headcommand {\sectionentry {2}{Overview of what I have been doing}{3}{Overview of what I have been doing}{0}}
\defcounter {refsection}{0}\relax 
\headcommand {\beamer@sectionpages {2}{2}}
\defcounter {refsection}{0}\relax 
\headcommand {\beamer@subsectionpages {2}{2}}
\defcounter {refsection}{0}\relax 
\headcommand {\slideentry {2}{0}{1}{3/3}{}{0}}
\defcounter {refsection}{0}\relax 
\headcommand {\beamer@framepages {3}{3}}
\defcounter {refsection}{0}\relax 
\headcommand {\sectionentry {3}{Model Geometry}{4}{Model Geometry}{0}}
\defcounter {refsection}{0}\relax 
\headcommand {\beamer@sectionpages {3}{3}}
\defcounter {refsection}{0}\relax 
\headcommand {\beamer@subsectionpages {3}{3}}
\defcounter {refsection}{0}\relax 
\headcommand {\beamer@subsectionentry {0}{3}{1}{4}{Geometry design}}\headcommand {\beamer@subsectionpages {4}{3}}
\defcounter {refsection}{0}\relax 
\headcommand {\beamer@subsubsectionentry {0}{3}{1}{1}{4}{High level assembly}}
\defcounter {refsection}{0}\relax 
\headcommand {\slideentry {3}{1}{1}{4/4}{Geometry design}{0}}
\defcounter {refsection}{0}\relax 
\headcommand {\beamer@framepages {4}{4}}
\defcounter {refsection}{0}\relax 
\headcommand {\beamer@subsubsectionentry {0}{3}{1}{2}{5}{Bone design}}
\defcounter {refsection}{0}\relax 
\headcommand {\slideentry {3}{1}{2}{5/5}{Geometry design}{0}}
\defcounter {refsection}{0}\relax 
\headcommand {\beamer@framepages {5}{5}}
\defcounter {refsection}{0}\relax 
\headcommand {\slideentry {3}{1}{3}{6/6}{Geometry design}{0}}
\defcounter {refsection}{0}\relax 
\headcommand {\beamer@framepages {6}{6}}
\defcounter {refsection}{0}\relax 
\headcommand {\slideentry {3}{1}{4}{7/7}{Geometry design}{0}}
\defcounter {refsection}{0}\relax 
\headcommand {\beamer@framepages {7}{7}}
\defcounter {refsection}{0}\relax 
\headcommand {\beamer@subsubsectionentry {0}{3}{1}{3}{8}{Collagen design}}
\defcounter {refsection}{0}\relax 
\headcommand {\slideentry {3}{1}{5}{8/8}{Geometry design}{0}}
\defcounter {refsection}{0}\relax 
\headcommand {\beamer@framepages {8}{8}}
\defcounter {refsection}{0}\relax 
\headcommand {\slideentry {3}{1}{6}{9/9}{Geometry design}{0}}
\defcounter {refsection}{0}\relax 
\headcommand {\beamer@framepages {9}{9}}
\defcounter {refsection}{0}\relax 
\headcommand {\beamer@subsubsectionentry {0}{3}{1}{4}{10}{Assembly of bone and collagen}}
\defcounter {refsection}{0}\relax 
\headcommand {\slideentry {3}{1}{7}{10/10}{Geometry design}{0}}
\defcounter {refsection}{0}\relax 
\headcommand {\beamer@framepages {10}{10}}
\defcounter {refsection}{0}\relax 
\headcommand {\beamer@subsubsectionentry {0}{3}{1}{5}{11}{Keratin?}}
\defcounter {refsection}{0}\relax 
\headcommand {\slideentry {3}{1}{8}{11/11}{Geometry design}{0}}
\defcounter {refsection}{0}\relax 
\headcommand {\beamer@framepages {11}{11}}
\defcounter {refsection}{0}\relax 
\headcommand {\beamer@subsectionentry {0}{3}{2}{12}{Python script to control everything}}\headcommand {\beamer@subsectionpages {4}{11}}
\defcounter {refsection}{0}\relax 
\headcommand {\slideentry {3}{2}{1}{12/12}{Python script to control everything}{0}}
\defcounter {refsection}{0}\relax 
\headcommand {\beamer@framepages {12}{12}}
\defcounter {refsection}{0}\relax 
\headcommand {\beamer@subsectionentry {0}{3}{3}{13}{Suture interface}}\headcommand {\beamer@subsectionpages {12}{12}}
\defcounter {refsection}{0}\relax 
\headcommand {\slideentry {3}{3}{1}{13/13}{Suture interface}{0}}
\defcounter {refsection}{0}\relax 
\headcommand {\beamer@framepages {13}{13}}
\defcounter {refsection}{0}\relax 
\headcommand {\slideentry {3}{3}{2}{14/14}{Suture interface}{0}}
\defcounter {refsection}{0}\relax 
\headcommand {\beamer@framepages {14}{14}}
\defcounter {refsection}{0}\relax 
\headcommand {\slideentry {3}{3}{3}{15/15}{Suture interface}{0}}
\defcounter {refsection}{0}\relax 
\headcommand {\beamer@framepages {15}{15}}
\defcounter {refsection}{0}\relax 
\headcommand {\slideentry {3}{3}{4}{16/16}{Suture interface}{0}}
\defcounter {refsection}{0}\relax 
\headcommand {\beamer@framepages {16}{16}}
\defcounter {refsection}{0}\relax 
\headcommand {\slideentry {3}{3}{5}{17/17}{Suture interface}{0}}
\defcounter {refsection}{0}\relax 
\headcommand {\beamer@framepages {17}{17}}
\defcounter {refsection}{0}\relax 
\headcommand {\slideentry {3}{3}{6}{18/18}{Suture interface}{0}}
\defcounter {refsection}{0}\relax 
\headcommand {\beamer@framepages {18}{18}}
\defcounter {refsection}{0}\relax 
\headcommand {\slideentry {3}{3}{7}{19/19}{Suture interface}{0}}
\defcounter {refsection}{0}\relax 
\headcommand {\beamer@framepages {19}{19}}
\defcounter {refsection}{0}\relax 
\headcommand {\slideentry {3}{3}{8}{20/20}{Suture interface}{0}}
\defcounter {refsection}{0}\relax 
\headcommand {\beamer@framepages {20}{20}}
\defcounter {refsection}{0}\relax 
\headcommand {\sectionentry {4}{Implementing Ogden model in a UMAT}{21}{Implementing Ogden model in a UMAT}{0}}
\defcounter {refsection}{0}\relax 
\headcommand {\beamer@sectionpages {4}{20}}
\defcounter {refsection}{0}\relax 
\headcommand {\beamer@subsectionpages {13}{20}}
\defcounter {refsection}{0}\relax 
\headcommand {\beamer@subsubsectionentry {0}{4}{0}{1}{21}{Motivation}}
\defcounter {refsection}{0}\relax 
\headcommand {\slideentry {4}{0}{1}{21/21}{}{0}}
\defcounter {refsection}{0}\relax 
\headcommand {\beamer@framepages {21}{21}}
\defcounter {refsection}{0}\relax 
\headcommand {\beamer@subsubsectionentry {0}{4}{0}{2}{22}{UMAT interface}}
\defcounter {refsection}{0}\relax 
\headcommand {\slideentry {4}{0}{2}{22/22}{}{0}}
\defcounter {refsection}{0}\relax 
\headcommand {\beamer@framepages {22}{22}}
\defcounter {refsection}{0}\relax 
\headcommand {\beamer@subsubsectionentry {0}{4}{0}{3}{23}{Strain energy function for the incompressible Ogden model}}
\defcounter {refsection}{0}\relax 
\headcommand {\slideentry {4}{0}{3}{23/23}{}{0}}
\defcounter {refsection}{0}\relax 
\headcommand {\beamer@framepages {23}{23}}
\defcounter {refsection}{0}\relax 
\headcommand {\slideentry {4}{0}{4}{24/24}{}{0}}
\defcounter {refsection}{0}\relax 
\headcommand {\beamer@framepages {24}{24}}
\defcounter {refsection}{0}\relax 
\headcommand {\slideentry {4}{0}{5}{25/25}{}{0}}
\defcounter {refsection}{0}\relax 
\headcommand {\beamer@framepages {25}{25}}
\defcounter {refsection}{0}\relax 
\headcommand {\slideentry {4}{0}{6}{26/26}{}{0}}
\defcounter {refsection}{0}\relax 
\headcommand {\beamer@framepages {26}{26}}
\headcommand {\beamer@partpages {1}{26}}
\headcommand {\beamer@subsectionpages {21}{26}}
\headcommand {\beamer@sectionpages {21}{26}}
\headcommand {\beamer@documentpages {26}}
\headcommand {\def \inserttotalframenumber {29}}
