\defcounter {refsection}{0}\relax 
\headcommand {\slideentry {0}{0}{1}{1/1}{}{0}}
\defcounter {refsection}{0}\relax 
\headcommand {\beamer@framepages {1}{1}}
\defcounter {refsection}{0}\relax 
\headcommand {\beamer@sectionpages {1}{2}}
\defcounter {refsection}{0}\relax 
\headcommand {\beamer@subsectionpages {1}{2}}
\defcounter {refsection}{0}\relax 
\headcommand {\slideentry {1}{0}{1}{3/3}{}{0}}
\defcounter {refsection}{0}\relax 
\headcommand {\beamer@framepages {3}{3}}
\defcounter {refsection}{0}\relax 
\headcommand {\beamer@sectionpages {3}{3}}
\defcounter {refsection}{0}\relax 
\headcommand {\beamer@subsectionpages {3}{3}}
\defcounter {refsection}{0}\relax 
\headcommand {\sectionentry {2}{Overview of what I have been doing}{4}{Overview of what I have been doing}{0}}
\defcounter {refsection}{0}\relax 
\headcommand {\slideentry {2}{0}{1}{4/4}{}{0}}
\defcounter {refsection}{0}\relax 
\headcommand {\beamer@framepages {4}{4}}
\defcounter {refsection}{0}\relax 
\headcommand {\beamer@sectionpages {4}{4}}
\defcounter {refsection}{0}\relax 
\headcommand {\beamer@subsectionpages {4}{4}}
\defcounter {refsection}{0}\relax 
\headcommand {\sectionentry {3}{Model Geometry}{5}{Model Geometry}{0}}
\defcounter {refsection}{0}\relax 
\headcommand {\beamer@subsectionpages {5}{4}}
\defcounter {refsection}{0}\relax 
\headcommand {\beamer@subsectionentry {0}{3}{1}{5}{Geometry design}}
\defcounter {refsection}{0}\relax 
\headcommand {\beamer@subsubsectionentry {0}{3}{1}{1}{5}{High level assembly}}
\defcounter {refsection}{0}\relax 
\headcommand {\slideentry {3}{1}{1}{5/5}{Geometry design}{0}}
\defcounter {refsection}{0}\relax 
\headcommand {\beamer@framepages {5}{5}}
\defcounter {refsection}{0}\relax 
\headcommand {\beamer@subsubsectionentry {0}{3}{1}{2}{6}{Bone design}}
\defcounter {refsection}{0}\relax 
\headcommand {\slideentry {3}{1}{2}{6/6}{Geometry design}{0}}
\defcounter {refsection}{0}\relax 
\headcommand {\beamer@framepages {6}{6}}
\defcounter {refsection}{0}\relax 
\headcommand {\slideentry {3}{1}{3}{7/7}{Geometry design}{0}}
\defcounter {refsection}{0}\relax 
\headcommand {\beamer@framepages {7}{7}}
\defcounter {refsection}{0}\relax 
\headcommand {\slideentry {3}{1}{4}{8/8}{Geometry design}{0}}
\defcounter {refsection}{0}\relax 
\headcommand {\beamer@framepages {8}{8}}
\defcounter {refsection}{0}\relax 
\headcommand {\beamer@subsubsectionentry {0}{3}{1}{3}{9}{Collagen design}}
\defcounter {refsection}{0}\relax 
\headcommand {\slideentry {3}{1}{5}{9/9}{Geometry design}{0}}
\defcounter {refsection}{0}\relax 
\headcommand {\beamer@framepages {9}{9}}
\defcounter {refsection}{0}\relax 
\headcommand {\slideentry {3}{1}{6}{10/10}{Geometry design}{0}}
\defcounter {refsection}{0}\relax 
\headcommand {\beamer@framepages {10}{10}}
\defcounter {refsection}{0}\relax 
\headcommand {\beamer@subsubsectionentry {0}{3}{1}{4}{11}{Assembly of bone and collagen}}
\defcounter {refsection}{0}\relax 
\headcommand {\slideentry {3}{1}{7}{11/11}{Geometry design}{0}}
\defcounter {refsection}{0}\relax 
\headcommand {\beamer@framepages {11}{11}}
\defcounter {refsection}{0}\relax 
\headcommand {\beamer@subsubsectionentry {0}{3}{1}{5}{12}{Keratin?}}
\defcounter {refsection}{0}\relax 
\headcommand {\slideentry {3}{1}{8}{12/12}{Geometry design}{0}}
\defcounter {refsection}{0}\relax 
\headcommand {\beamer@framepages {12}{12}}
\defcounter {refsection}{0}\relax 
\headcommand {\beamer@subsectionpages {5}{12}}
\defcounter {refsection}{0}\relax 
\headcommand {\beamer@subsectionentry {0}{3}{2}{13}{Python script to control everything}}
\defcounter {refsection}{0}\relax 
\headcommand {\slideentry {3}{2}{1}{13/13}{Python script to control everything}{0}}
\defcounter {refsection}{0}\relax 
\headcommand {\beamer@framepages {13}{13}}
\defcounter {refsection}{0}\relax 
\headcommand {\beamer@subsectionpages {13}{13}}
\defcounter {refsection}{0}\relax 
\headcommand {\beamer@subsectionentry {0}{3}{3}{14}{Suture interface}}
\defcounter {refsection}{0}\relax 
\headcommand {\slideentry {3}{3}{1}{14/14}{Suture interface}{0}}
\defcounter {refsection}{0}\relax 
\headcommand {\beamer@framepages {14}{14}}
\defcounter {refsection}{0}\relax 
\headcommand {\slideentry {3}{3}{2}{15/15}{Suture interface}{0}}
\defcounter {refsection}{0}\relax 
\headcommand {\beamer@framepages {15}{15}}
\defcounter {refsection}{0}\relax 
\headcommand {\slideentry {3}{3}{3}{16/16}{Suture interface}{0}}
\defcounter {refsection}{0}\relax 
\headcommand {\beamer@framepages {16}{16}}
\defcounter {refsection}{0}\relax 
\headcommand {\slideentry {3}{3}{4}{17/17}{Suture interface}{0}}
\defcounter {refsection}{0}\relax 
\headcommand {\beamer@framepages {17}{17}}
\defcounter {refsection}{0}\relax 
\headcommand {\slideentry {3}{3}{5}{18/18}{Suture interface}{0}}
\defcounter {refsection}{0}\relax 
\headcommand {\beamer@framepages {18}{18}}
\defcounter {refsection}{0}\relax 
\headcommand {\slideentry {3}{3}{6}{19/19}{Suture interface}{0}}
\defcounter {refsection}{0}\relax 
\headcommand {\beamer@framepages {19}{19}}
\defcounter {refsection}{0}\relax 
\headcommand {\slideentry {3}{3}{7}{20/20}{Suture interface}{0}}
\defcounter {refsection}{0}\relax 
\headcommand {\beamer@framepages {20}{20}}
\defcounter {refsection}{0}\relax 
\headcommand {\slideentry {3}{3}{8}{21/21}{Suture interface}{0}}
\defcounter {refsection}{0}\relax 
\headcommand {\beamer@framepages {21}{21}}
\defcounter {refsection}{0}\relax 
\headcommand {\beamer@sectionpages {5}{21}}
\defcounter {refsection}{0}\relax 
\headcommand {\beamer@subsectionpages {14}{21}}
\defcounter {refsection}{0}\relax 
\headcommand {\sectionentry {4}{Implementing Ogden model in a UMAT}{22}{Implementing Ogden model in a UMAT}{0}}
\defcounter {refsection}{0}\relax 
\headcommand {\beamer@subsectionpages {22}{21}}
\defcounter {refsection}{0}\relax 
\headcommand {\beamer@subsectionentry {0}{4}{1}{22}{Motivation}}
\defcounter {refsection}{0}\relax 
\headcommand {\slideentry {4}{1}{1}{22/22}{Motivation}{0}}
\defcounter {refsection}{0}\relax 
\headcommand {\beamer@framepages {22}{22}}
\defcounter {refsection}{0}\relax 
\headcommand {\beamer@subsectionpages {22}{22}}
\defcounter {refsection}{0}\relax 
\headcommand {\beamer@subsectionentry {0}{4}{2}{23}{UMAT interface}}
\defcounter {refsection}{0}\relax 
\headcommand {\slideentry {4}{2}{1}{23/23}{UMAT interface}{0}}
\defcounter {refsection}{0}\relax 
\headcommand {\beamer@framepages {23}{23}}
\defcounter {refsection}{0}\relax 
\headcommand {\beamer@subsectionpages {23}{23}}
\defcounter {refsection}{0}\relax 
\headcommand {\beamer@subsectionentry {0}{4}{3}{24}{Determining the tangent matrix i.t.o. Cauchy stress and strain}}
\defcounter {refsection}{0}\relax 
\headcommand {\slideentry {4}{3}{1}{24/24}{Determining the tangent matrix i.t.o. Cauchy stress and strain}{0}}
\defcounter {refsection}{0}\relax 
\headcommand {\beamer@framepages {24}{24}}
\defcounter {refsection}{0}\relax 
\headcommand {\slideentry {4}{3}{2}{25/25}{Determining the tangent matrix i.t.o. Cauchy stress and strain}{0}}
\defcounter {refsection}{0}\relax 
\headcommand {\beamer@framepages {25}{25}}
\defcounter {refsection}{0}\relax 
\headcommand {\slideentry {4}{3}{3}{26/26}{Determining the tangent matrix i.t.o. Cauchy stress and strain}{0}}
\defcounter {refsection}{0}\relax 
\headcommand {\beamer@framepages {26}{26}}
\defcounter {refsection}{0}\relax 
\headcommand {\slideentry {4}{3}{4}{27/27}{Determining the tangent matrix i.t.o. Cauchy stress and strain}{0}}
\defcounter {refsection}{0}\relax 
\headcommand {\beamer@framepages {27}{27}}
\defcounter {refsection}{0}\relax 
\headcommand {\slideentry {4}{3}{5}{28/28}{Determining the tangent matrix i.t.o. Cauchy stress and strain}{0}}
\defcounter {refsection}{0}\relax 
\headcommand {\beamer@framepages {28}{28}}
\headcommand {\beamer@partpages {1}{28}}
\headcommand {\beamer@subsectionpages {24}{28}}
\headcommand {\beamer@sectionpages {22}{28}}
\headcommand {\beamer@documentpages {28}}
\headcommand {\gdef \inserttotalframenumber {30}}
