[0] Config.pm:340> INFO - This is Biber 2.4
[0] Config.pm:343> INFO - Logfile is 'meeting_slides.blg'
[44] biber:287> INFO - === Tue Feb 19, 2019, 08:03:08
[128] Biber.pm:348> INFO - Reading 'meeting_slides.bcf'
[265] Biber.pm:742> INFO - Found 6 citekeys in bib section 0
[270] Biber.pm:3151> INFO - Processing section 0
[300] Biber.pm:3308> INFO - Looking for bibtex format file 'ref.bib' for section 0
[326] bibtex.pm:1113> INFO - Decoding LaTeX character macros into UTF-8
[348] bibtex.pm:974> INFO - Found BibTeX data source 'ref.bib'
[479] UCollate.pm:65> INFO - Overriding locale 'en-US' defaults 'variable = shifted' with 'variable = non-ignorable'
[479] UCollate.pm:65> INFO - Overriding locale 'en-US' defaults 'normalization = NFD' with 'normalization = prenormalized'
[479] Biber.pm:3028> INFO - Sorting list 'nty/global' of type 'entry' with scheme 'nty' and locale 'en-US'
[479] Biber.pm:3032> INFO - No sort tailoring available for locale 'en-US'
[488] bbl.pm:519> INFO - Writing 'meeting_slides.bbl' with encoding 'UTF-8'
[519] bbl.pm:615> INFO - Output to meeting_slides.bbl
