<?xml version="1.0" encoding="UTF-8" standalone="no"?>
<!-- Created with Inkscape (http://www.inkscape.org/) -->

<svg
   xmlns:dc="http://purl.org/dc/elements/1.1/"
   xmlns:cc="http://creativecommons.org/ns#"
   xmlns:rdf="http://www.w3.org/1999/02/22-rdf-syntax-ns#"
   xmlns:svg="http://www.w3.org/2000/svg"
   xmlns="http://www.w3.org/2000/svg"
   xmlns:sodipodi="http://sodipodi.sourceforge.net/DTD/sodipodi-0.dtd"
   xmlns:inkscape="http://www.inkscape.org/namespaces/inkscape"
   width="210mm"
   height="297mm"
   viewBox="0 0 210 297"
   version="1.1"
   id="svg8"
   inkscape:version="0.92.3 (unknown)"
   sodipodi:docname="assembly.svg">
  <defs
     id="defs2" />
  <sodipodi:namedview
     id="base"
     pagecolor="#ffffff"
     bordercolor="#666666"
     borderopacity="1.0"
     inkscape:pageopacity="0.0"
     inkscape:pageshadow="2"
     inkscape:zoom="1.4"
     inkscape:cx="166.57124"
     inkscape:cy="858.49994"
     inkscape:document-units="mm"
     inkscape:current-layer="layer1"
     showgrid="false"
     inkscape:window-width="1855"
     inkscape:window-height="1056"
     inkscape:window-x="65"
     inkscape:window-y="24"
     inkscape:window-maximized="1" />
  <metadata
     id="metadata5">
    <rdf:RDF>
      <cc:Work
         rdf:about="">
        <dc:format>image/svg+xml</dc:format>
        <dc:type
           rdf:resource="http://purl.org/dc/dcmitype/StillImage" />
        <dc:title></dc:title>
      </cc:Work>
    </rdf:RDF>
  </metadata>
  <g
     inkscape:label="Layer 1"
     inkscape:groupmode="layer"
     id="layer1">
    <g
       id="g954"
       transform="matrix(0.26458333,0,0,0.26458333,21.54007,26.955388)">
      <path
         id="path897"
         pointer-events="none"
         stroke-miterlimit="10"
         d="M 30,150 Q 110,70 230,70"
         inkscape:connector-curvature="0"
         style="fill:none;stroke:#000000;stroke-miterlimit:10" />
      <path
         id="path899"
         pointer-events="none"
         stroke-miterlimit="10"
         d="m 310,70 q 120,0 200,80"
         inkscape:connector-curvature="0"
         style="fill:none;stroke:#000000;stroke-miterlimit:10" />
      <rect
         id="rect901"
         pointer-events="none"
         height="40"
         width="80"
         y="30"
         x="230"
         style="fill:#ffffff;stroke:#000000" />
      <path
         id="path903"
         pointer-events="none"
         stroke-miterlimit="10"
         d="M 30,150 20,140"
         inkscape:connector-curvature="0"
         style="fill:none;stroke:#000000;stroke-miterlimit:10" />
      <path
         id="path905"
         pointer-events="none"
         stroke-miterlimit="10"
         d="M 20,140 Q 90,50 230,30"
         inkscape:connector-curvature="0"
         style="fill:none;stroke:#000000;stroke-miterlimit:10" />
      <path
         id="path907"
         pointer-events="none"
         stroke-miterlimit="10"
         d="M 310,30 Q 450,40 520,140"
         inkscape:connector-curvature="0"
         style="fill:none;stroke:#000000;stroke-miterlimit:10" />
      <path
         id="path909"
         pointer-events="none"
         stroke-miterlimit="10"
         d="m 510,150 10,-10"
         inkscape:connector-curvature="0"
         style="fill:none;stroke:#000000;stroke-miterlimit:10" />
      <path
         id="path911"
         pointer-events="none"
         stroke-miterlimit="10"
         d="M 20,140 10,130"
         inkscape:connector-curvature="0"
         style="fill:none;stroke:#000000;stroke-miterlimit:10" />
      <path
         id="path913"
         pointer-events="none"
         stroke-miterlimit="10"
         d="m 520,140 10,-10"
         inkscape:connector-curvature="0"
         style="fill:none;stroke:#000000;stroke-miterlimit:10" />
      <path
         id="path915"
         pointer-events="none"
         stroke-miterlimit="10"
         d="M 10,130 Q 90,20 230,10"
         inkscape:connector-curvature="0"
         style="fill:none;stroke:#000000;stroke-miterlimit:10" />
      <path
         id="path917"
         pointer-events="none"
         stroke-miterlimit="10"
         d="M 310,10 Q 460,20 530,130"
         inkscape:connector-curvature="0"
         style="fill:none;stroke:#000000;stroke-miterlimit:10" />
      <path
         id="path919"
         pointer-events="none"
         stroke-miterlimit="10"
         d="m 230,10 h 80"
         inkscape:connector-curvature="0"
         style="fill:none;stroke:#000000;stroke-miterlimit:10" />
      <path
         id="path921"
         pointer-events="none"
         stroke-miterlimit="10"
         d="M 10,130 0,120"
         inkscape:connector-curvature="0"
         style="fill:none;stroke:#000000;stroke-miterlimit:10" />
      <path
         id="path923"
         pointer-events="none"
         stroke-miterlimit="10"
         d="m 530,130 10,-10"
         inkscape:connector-curvature="0"
         style="fill:none;stroke:#000000;stroke-miterlimit:10" />
      <path
         id="path925"
         pointer-events="none"
         stroke-miterlimit="10"
         d="M 0,120 Q 80,10 230,0"
         inkscape:connector-curvature="0"
         style="fill:none;stroke:#000000;stroke-miterlimit:10" />
      <path
         id="path927"
         pointer-events="none"
         stroke-miterlimit="10"
         d="M 540,120 Q 480,10 310,0"
         inkscape:connector-curvature="0"
         style="fill:none;stroke:#000000;stroke-miterlimit:10" />
      <path
         id="path929"
         pointer-events="none"
         stroke-miterlimit="10"
         d="m 230,0 h 80"
         inkscape:connector-curvature="0"
         style="fill:none;stroke:#000000;stroke-miterlimit:10" />
    </g>
    <path
       style="opacity:1;fill:#856666;fill-opacity:0.91379309;stroke:#ffffff;stroke-width:0.26996624;stroke-miterlimit:4;stroke-dasharray:none;stroke-dashoffset:0;stroke-opacity:0.97701153"
       d="m 106.98616,246.07867 -4.38484,-4.42415 6.03505,-7.23635 c 22.80334,-27.3424 53.26788,-50.84468 87.86344,-67.7834 33.22301,-16.2667 63.59079,-25.36182 111.96429,-33.53321 l 1.96429,-0.33181 v 19.15608 19.15608 l -13.39286,0.44786 c -69.39833,2.32072 -130.22336,27.19927 -179.88584,73.57663 l -5.7787,5.39644 z"
       id="path956"
       inkscape:connector-curvature="0"
       transform="scale(0.26458333)" />
    <path
       style="opacity:1;fill:#856666;fill-opacity:0.91379309;stroke:#ffffff;stroke-width:0.26996624;stroke-miterlimit:4;stroke-dasharray:none;stroke-dashoffset:0;stroke-opacity:0.97701153"
       d="m 583.64267,243.27067 c -49.3064,-45.2536 -109.23845,-69.45223 -177.67857,-71.7409 l -13.39286,-0.44786 V 151.8725 132.66309 l 4.46429,0.44918 c 35.0127,3.52282 58.37667,8.56327 85.70633,18.48995 25.12929,9.12746 49.81208,23.02321 70.81941,39.86941 13.64477,10.94202 34.06876,32.57047 44.50535,47.12997 l 2.2811,3.18222 -4.42395,4.34908 -4.42395,4.34907 z"
       id="path958"
       inkscape:connector-curvature="0"
       transform="scale(0.26458333)" />
    <path
       style="opacity:1;fill:#008000;fill-opacity:0.85632181;stroke:#ffffff;stroke-width:0.26996624;stroke-miterlimit:4;stroke-dasharray:none;stroke-dashoffset:0;stroke-opacity:0.97701153"
       d="m 86.974681,226.0671 -4.375486,-4.41473 4.386395,-5.70917 c 13.24303,-17.23664 31.36877,-35.92848 47.01422,-48.48258 43.5035,-34.90773 92.74329,-54.62163 157.5,-63.05755 13.9034,-1.81121 95.00542,-2.24934 113.92858,-0.61547 102.01308,8.80806 171.54218,45.59182 211.34918,111.81243 l 3.63242,6.04269 -4.38868,4.42805 -4.38869,4.42804 -4.978,-7.27524 c -15.74348,-23.00873 -37.86943,-45.67857 -60.1548,-61.63352 -31.64338,-22.6547 -71.76424,-38.53454 -116.07143,-45.94111 -25.23969,-4.21916 -29.86294,-4.45188 -82.85715,-4.17078 -51.89805,0.27528 -51.55524,0.25455 -75,4.53601 -71.67234,13.08877 -132.3049,50.21685 -176.232472,107.91518 l -4.988602,6.55247 z"
       id="path968"
       inkscape:connector-curvature="0"
       transform="scale(0.26458333)" />
    <path
       style="opacity:1;fill:#ffff00;fill-opacity:0.7758621;stroke:#ffffff;stroke-width:0.26996624;stroke-miterlimit:4;stroke-dasharray:none;stroke-dashoffset:0;stroke-opacity:0.97701153"
       d="m 96.941358,236.03347 -4.368183,-4.40735 5.812698,-7.48176 c 17.724877,-22.8144 39.921637,-44.30226 61.727857,-59.75646 37.39602,-26.50278 78.90683,-42.28032 130.6718,-49.66611 11.00982,-1.57087 13.22136,-1.63062 60.35714,-1.63062 51.48983,0 52.04661,0.0265 75.14459,3.57837 77.51623,11.91993 138.54221,48.53334 178.66143,107.19046 l 5.41128,7.91168 -4.44421,4.40471 -4.44422,4.40471 -4.01986,-5.53068 c -10.23109,-14.07632 -25.90096,-30.80813 -39.53307,-42.2122 -40.14384,-33.5827 -90.08161,-53.46927 -151.77594,-60.4413 -7.60463,-0.85939 -18.85262,-1.08988 -53.21428,-1.09045 -39.89592,-6.7e-4 -44.2959,0.11748 -52.15969,1.40055 -55.91049,9.12245 -106.15507,28.46476 -144.42358,55.59776 -17.05019,12.08886 -37.17921,30.58774 -49.62275,45.60408 l -5.41283,6.53197 z"
       id="path970"
       inkscape:connector-curvature="0"
       transform="scale(0.26458333)" />
    <path
       style="opacity:1;fill:#0000ff;fill-opacity:0.62643678;stroke:#ffffff;stroke-width:0.26996624;stroke-miterlimit:4;stroke-dasharray:none;stroke-dashoffset:0;stroke-opacity:0.97701153"
       d="m 312.57124,152.01975 v -19.28572 h 38.92858 38.92857 v 19.28572 19.28571 h -38.92857 -38.92858 z"
       id="path972"
       inkscape:connector-curvature="0"
       transform="scale(0.26458333)" />
    <rect
       style="opacity:1;fill:#008000;fill-opacity:0.85632181;stroke:#ffffff;stroke-width:0.50000001;stroke-miterlimit:4;stroke-dasharray:none;stroke-dashoffset:0;stroke-opacity:0"
       id="rect974"
       width="6.9925594"
       height="3.5907736"
       x="54.806545"
       y="57.74107" />
    <rect
       style="opacity:1;fill:#ffff00;fill-opacity:0.7758621;stroke:#ffffff;stroke-width:0.1;stroke-miterlimit:4;stroke-dasharray:none;stroke-dashoffset:0;stroke-opacity:0.97701153"
       id="rect974-3"
       width="6.9925594"
       height="3.5907738"
       x="54.334076"
       y="65.584076" />
    <rect
       style="opacity:1;fill:#856666;fill-opacity:0.91379309;stroke:#ffffff;stroke-width:0.1;stroke-miterlimit:4;stroke-dasharray:none;stroke-dashoffset:0;stroke-opacity:0.97701153"
       id="rect974-6"
       width="6.9925594"
       height="3.5907738"
       x="93.6436"
       y="57.268608" />
    <rect
       style="opacity:1;fill:#0000ff;fill-opacity:0.62643678;stroke:#ffffff;stroke-width:0.1;stroke-miterlimit:4;stroke-dasharray:none;stroke-dashoffset:0;stroke-opacity:0.97701153"
       id="rect974-7"
       width="6.9925594"
       height="3.5907738"
       x="93.454613"
       y="65.395096" />
    <text
       xml:space="preserve"
       style="font-style:normal;font-weight:normal;font-size:3.52777767px;line-height:3;font-family:sans-serif;letter-spacing:0px;word-spacing:0px;fill:#000000;fill-opacity:1;stroke:none;stroke-width:0.26458332"
       x="62.933037"
       y="60.386902"
       id="text1009"><tspan
         sodipodi:role="line"
         id="tspan1007"
         x="62.933037"
         y="60.386902"
         style="font-size:3.52777767px;line-height:3;stroke-width:0.26458332">Keratin</tspan></text>
    <flowRoot
       xml:space="preserve"
       id="flowRoot1011"
       style="fill:black;fill-opacity:1;stroke:none;font-family:sans-serif;font-style:normal;font-weight:normal;font-size:13.33333333px;line-height:1.25;letter-spacing:0px;word-spacing:0px;-inkscape-font-specification:'sans-serif, Normal';font-stretch:normal;font-variant:normal;text-anchor:start;text-align:start;writing-mode:lr;font-variant-ligatures:normal;font-variant-caps:normal;font-variant-numeric:normal;font-feature-settings:normal"><flowRegion
         id="flowRegion1013"><rect
           id="rect1015"
           width="60.714287"
           height="26.428572"
           x="248.57143"
           y="190.37683" /></flowRegion><flowPara
         id="flowPara1017"></flowPara></flowRoot>    <text
       xml:space="preserve"
       style="font-style:normal;font-weight:normal;font-size:3.52777767px;line-height:3;font-family:sans-serif;letter-spacing:0px;word-spacing:0px;fill:#000000;fill-opacity:1;stroke:none;stroke-width:0.26458332"
       x="63.415718"
       y="68.730682"
       id="text1009-9"><tspan
         sodipodi:role="line"
         id="tspan1007-1"
         x="63.415718"
         y="68.730682"
         style="font-size:3.52777767px;line-height:3;stroke-width:0.26458332">Collagen</tspan></text>
    <text
       xml:space="preserve"
       style="font-style:normal;font-weight:normal;font-size:3.52777767px;line-height:3;font-family:sans-serif;letter-spacing:0px;word-spacing:0px;fill:#000000;fill-opacity:1;stroke:none;stroke-width:0.26458332"
       x="102.34727"
       y="60.037231"
       id="text1009-9-5"><tspan
         sodipodi:role="line"
         id="tspan1007-1-4"
         x="102.34727"
         y="60.037231"
         style="font-size:3.52777767px;line-height:3;stroke-width:0.26458332">Bone</tspan></text>
    <text
       xml:space="preserve"
       style="font-style:normal;font-weight:normal;font-size:3.52777767px;line-height:1;font-family:sans-serif;text-align:center;letter-spacing:0px;word-spacing:0px;text-anchor:middle;fill:#000000;fill-opacity:1;stroke:none;stroke-width:0.26458332"
       x="123.80135"
       y="68.163719"
       id="text1009-9-9"><tspan
         sodipodi:role="line"
         x="124.36291"
         y="68.163719"
         style="font-size:3.52777767px;line-height:1;text-align:center;text-anchor:middle;stroke-width:0.26458332"
         id="tspan1067">Suture - bone-collagen </tspan><tspan
         sodipodi:role="line"
         x="123.80135"
         y="71.691498"
         style="font-size:3.52777767px;line-height:1;text-align:center;text-anchor:middle;stroke-width:0.26458332"
         id="tspan1071">interface</tspan></text>
  </g>
</svg>
