\BOOKMARK [2][]{Outline0.2}{Introduction}{}% 1
\BOOKMARK [2][]{Outline0.3}{Turtle shell structure}{}% 2
\BOOKMARK [3][]{Outline0.3.1.5}{The Carapace}{Outline0.3}% 3
\BOOKMARK [3][]{Outline0.3.2.6}{Bone in turtle shell}{Outline0.3}% 4
\BOOKMARK [3][]{Outline0.3.3.9}{Sutures and collagenous soft tissue in turtle shell}{Outline0.3}% 5
\BOOKMARK [3][]{Outline0.3.4.11}{Keratinous hard tissue in turtle shell}{Outline0.3}% 6
\BOOKMARK [2][]{Outline0.4}{Modelling idealised suture tooth}{}% 7
\BOOKMARK [3][]{Outline0.4.1.14}{Idealised model}{Outline0.4}% 8
\BOOKMARK [3][]{Outline0.4.2.15}{Linear elastic results}{Outline0.4}% 9
\BOOKMARK [3][]{Outline0.4.3.17}{Linear elastic-plastic results}{Outline0.4}% 10
\BOOKMARK [3][]{Outline0.4.4.18}{Hyper-elastic Yeoh model for collagen and linear elastic bone}{Outline0.4}% 11
\BOOKMARK [3][]{Outline0.4.5.20}{Issues implementing other material models}{Outline0.4}% 12
