% $ biblatex auxiliary file $
% $ biblatex bbl format version 2.9 $
% Do not modify the above lines!
%
% This is an auxiliary file used by the 'biblatex' package.
% This file may safely be deleted. It will be recreated by
% biber as required.
%
\begingroup
\makeatletter
\@ifundefined{ver@biblatex.sty}
  {\@latex@error
     {Missing 'biblatex' package}
     {The bibliography requires the 'biblatex' package.}
      \aftergroup\endinput}
  {}
\endgroup


\refsection{0}
  \datalist[entry]{nty/global//global/global}
    \entry{all_props}{article}{}
      \name{author}{2}{}{%
        {{hash=c3488b7f91a315a33e5985c174c1871f}{%
           family={Achrai},
           familyi={A\bibinitperiod},
           given={Ben},
           giveni={B\bibinitperiod}}}%
        {{hash=64ea010a43a332ac8083ef829993ab14}{%
           family={Wagner},
           familyi={W\bibinitperiod},
           given={H.\bibnamedelimi Daniel},
           giveni={H\bibinitperiod\bibinitdelim D\bibinitperiod}}}%
      }
      \strng{namehash}{4919000a034853217c88da40092aa779}
      \strng{fullhash}{4919000a034853217c88da40092aa779}
      \strng{bibnamehash}{4919000a034853217c88da40092aa779}
      \strng{authorbibnamehash}{4919000a034853217c88da40092aa779}
      \strng{authornamehash}{4919000a034853217c88da40092aa779}
      \strng{authorfullhash}{4919000a034853217c88da40092aa779}
      \field{sortinit}{A}
      \field{sortinithash}{d77c7cdd82ff690d4c3ef13216f92f0b}
      \field{labelnamesource}{author}
      \field{labeltitlesource}{title}
      \field{issn}{1742-7061}
      \field{journaltitle}{Acta Biomaterialia}
      \field{number}{4}
      \field{title}{Micro-structure and mechanical properties of the turtle carapace as a biological composite shield}
      \field{volume}{9}
      \field{year}{2013}
      \field{pages}{5890\bibrangedash 5902}
      \range{pages}{13}
      \verb{doi}
      \verb https://doi.org/10.1016/j.actbio.2012.12.023
      \endverb
      \verb{urlraw}
      \verb http://www.sciencedirect.com/science/article/pii/S1742706112006150
      \endverb
      \verb{url}
      \verb http://www.sciencedirect.com/science/article/pii/S1742706112006150
      \endverb
      \keyw{Turtle carapace,Biological composites,Hierarchical structure,Mechanical properties,Nanoindentation}
    \endentry
    \entry{ker_poi}{article}{}
      \name{author}{5}{}{%
        {{hash=d2494bae29607ef5d09ec5723d903b5b}{%
           family={Balani},
           familyi={B\bibinitperiod},
           given={Kantesh},
           giveni={K\bibinitperiod}}}%
        {{hash=090e943f30efc2ecb4a9a7fc1543efe3}{%
           family={Patel},
           familyi={P\bibinitperiod},
           given={Riken\bibnamedelima R.},
           giveni={R\bibinitperiod\bibinitdelim R\bibinitperiod}}}%
        {{hash=6c7042d04131f8da4d7a64b9f93403dd}{%
           family={Keshri},
           familyi={K\bibinitperiod},
           given={Anup\bibnamedelima K.},
           giveni={A\bibinitperiod\bibinitdelim K\bibinitperiod}}}%
        {{hash=7746a338a9d426ac0a336112a1febffc}{%
           family={Lahiri},
           familyi={L\bibinitperiod},
           given={Debrupa},
           giveni={D\bibinitperiod}}}%
        {{hash=15fc6d842c255985d60a72f14f6c625e}{%
           family={Agarwal},
           familyi={A\bibinitperiod},
           given={Arvind},
           giveni={A\bibinitperiod}}}%
      }
      \strng{namehash}{1494789b220e3a811bfccae3839f6e02}
      \strng{fullhash}{9c4dd0970e90f40618952e5f8ac83728}
      \strng{bibnamehash}{1494789b220e3a811bfccae3839f6e02}
      \strng{authorbibnamehash}{1494789b220e3a811bfccae3839f6e02}
      \strng{authornamehash}{1494789b220e3a811bfccae3839f6e02}
      \strng{authorfullhash}{9c4dd0970e90f40618952e5f8ac83728}
      \field{sortinit}{B}
      \field{sortinithash}{276475738cc058478c1677046f857703}
      \field{labelnamesource}{author}
      \field{labeltitlesource}{title}
      \field{issn}{1751-6161}
      \field{journaltitle}{Journal of the Mechanical Behavior of Biomedical Materials}
      \field{number}{7}
      \field{title}{Multi-scale hierarchy of Chelydra serpentina: Microstructure and mechanical properties of turtle shell}
      \field{volume}{4}
      \field{year}{2011}
      \field{pages}{1440\bibrangedash 1451}
      \range{pages}{12}
      \verb{doi}
      \verb https://doi.org/10.1016/j.jmbbm.2011.05.014
      \endverb
      \verb{urlraw}
      \verb http://www.sciencedirect.com/science/article/pii/S1751616111001160
      \endverb
      \verb{url}
      \verb http://www.sciencedirect.com/science/article/pii/S1751616111001160
      \endverb
      \keyw{Chelydra,Turtle’s carapace,Nanoindentation,Object oriented finite element modeling}
    \endentry
    \entry{no_poi}{article}{}
      \name{author}{3}{}{%
        {{hash=e61de8de41973cef2dab8709635cc4ad}{%
           family={Faingold},
           familyi={F\bibinitperiod},
           given={Anna},
           giveni={A\bibinitperiod}}}%
        {{hash=b4e022420b119806395c46b6fa9fca50}{%
           family={Cohen},
           familyi={C\bibinitperiod},
           given={Sidney\bibnamedelima R.},
           giveni={S\bibinitperiod\bibinitdelim R\bibinitperiod}}}%
        {{hash=64ea010a43a332ac8083ef829993ab14}{%
           family={Wagner},
           familyi={W\bibinitperiod},
           given={H.\bibnamedelimi Daniel},
           giveni={H\bibinitperiod\bibinitdelim D\bibinitperiod}}}%
      }
      \strng{namehash}{bfc2d134facea16d027a8bf00da2cabf}
      \strng{fullhash}{bfc2d134facea16d027a8bf00da2cabf}
      \strng{bibnamehash}{bfc2d134facea16d027a8bf00da2cabf}
      \strng{authorbibnamehash}{bfc2d134facea16d027a8bf00da2cabf}
      \strng{authornamehash}{bfc2d134facea16d027a8bf00da2cabf}
      \strng{authorfullhash}{bfc2d134facea16d027a8bf00da2cabf}
      \field{sortinit}{F}
      \field{sortinithash}{669c706c6f1fbf3b5a83d26f1d9e9e72}
      \field{labelnamesource}{author}
      \field{labeltitlesource}{title}
      \field{issn}{1751-6161}
      \field{journaltitle}{Journal of the Mechanical Behavior of Biomedical Materials}
      \field{title}{Nanoindentation of osteonal bone lamellae}
      \field{volume}{9}
      \field{year}{2012}
      \field{pages}{198\bibrangedash 206}
      \range{pages}{9}
      \verb{doi}
      \verb https://doi.org/10.1016/j.jmbbm.2012.01.014
      \endverb
      \verb{urlraw}
      \verb http://www.sciencedirect.com/science/article/pii/S1751616112000343
      \endverb
      \verb{url}
      \verb http://www.sciencedirect.com/science/article/pii/S1751616112000343
      \endverb
      \keyw{Lamellar bone,Anisotropy,Nanoindentation,Mechanical properties,Structure,Osteon}
    \endentry
    \entry{aniso}{article}{}
      \name{author}{5}{}{%
        {{hash=67a55bdd28cdd462f59be2873eecbfbd}{%
           family={Nolan},
           familyi={N\bibinitperiod},
           given={D.R.},
           giveni={D\bibinitperiod}}}%
        {{hash=c61720bd33c4a2c34628769991b77f00}{%
           family={Gower},
           familyi={G\bibinitperiod},
           given={A.L.},
           giveni={A\bibinitperiod}}}%
        {{hash=8b891e89ee72971b3718abd22b305295}{%
           family={Destrade},
           familyi={D\bibinitperiod},
           given={M.},
           giveni={M\bibinitperiod}}}%
        {{hash=431a01e25c99b378b3e73994e9c551d3}{%
           family={Ogden},
           familyi={O\bibinitperiod},
           given={R.W.},
           giveni={R\bibinitperiod}}}%
        {{hash=66552d2c96aaab35b1f1911a20d5c6dd}{%
           family={Mcgarry},
           familyi={M\bibinitperiod},
           given={J.P.},
           giveni={J\bibinitperiod}}}%
      }
      \list{publisher}{1}{%
        {Elsevier BV}%
      }
      \strng{namehash}{4a9072cbc321ba58853f1be6b83572b5}
      \strng{fullhash}{9317752e542dcd1f0e7b720bc54d55ca}
      \strng{bibnamehash}{4a9072cbc321ba58853f1be6b83572b5}
      \strng{authorbibnamehash}{4a9072cbc321ba58853f1be6b83572b5}
      \strng{authornamehash}{4a9072cbc321ba58853f1be6b83572b5}
      \strng{authorfullhash}{9317752e542dcd1f0e7b720bc54d55ca}
      \field{sortinit}{N}
      \field{sortinithash}{f7242c3ed3dc50029fca1be76c497c7c}
      \field{labelnamesource}{author}
      \field{labeltitlesource}{title}
      \field{issn}{1751-6161}
      \field{number}{C}
      \field{title}{A robust anisotropic hyperelastic formulation for the modelling of soft tissue}
      \field{volume}{39}
      \field{year}{2014-11-01}
      \field{pages}{48\bibrangedash 60}
      \range{pages}{13}
      \verb{urlraw}
      \verb http://hdl.handle.net/10379/13146
      \endverb
      \verb{url}
      \verb http://hdl.handle.net/10379/13146
      \endverb
    \endentry
    \entry{Ogden2004}{article}{}
      \name{author}{3}{}{%
        {{hash=e9a0130588c44276ff2f00c895829f5e}{%
           family={Ogden},
           familyi={O\bibinitperiod},
           given={R.\bibnamedelimi W.},
           giveni={R\bibinitperiod\bibinitdelim W\bibinitperiod}}}%
        {{hash=b10373d199cc126d3707cf056db3fa72}{%
           family={Saccomandi},
           familyi={S\bibinitperiod},
           given={G.},
           giveni={G\bibinitperiod}}}%
        {{hash=82dfc69530dd75ceeace344f6b7cea73}{%
           family={Sgura},
           familyi={S\bibinitperiod},
           given={I.},
           giveni={I\bibinitperiod}}}%
      }
      \strng{namehash}{c3396f5323dee71c68d14d5c798cd3fc}
      \strng{fullhash}{c3396f5323dee71c68d14d5c798cd3fc}
      \strng{bibnamehash}{c3396f5323dee71c68d14d5c798cd3fc}
      \strng{authorbibnamehash}{c3396f5323dee71c68d14d5c798cd3fc}
      \strng{authornamehash}{c3396f5323dee71c68d14d5c798cd3fc}
      \strng{authorfullhash}{c3396f5323dee71c68d14d5c798cd3fc}
      \field{sortinit}{O}
      \field{sortinithash}{dad3efd0836470093a7b4a7bb756eb8c}
      \field{labelnamesource}{author}
      \field{labeltitlesource}{title}
      \field{abstract}{This paper is concerned with determining material parameters in incompressible isotropic elastic strain--energy functions on the basis of a non-linear least squares optimization method by fitting data from the classical experiments of Treloar and Jones and Treloar on natural rubber. We consider three separate forms of strain-energy function, based respectively on use of the principal stretches, the usual principal invariants of the Cauchy-Green deformation tensor and a certain set of `orthogonal' invariants of the logarithmic strain tensor. We highlight, in particular, (a) the relative errors generated in the fitting process and (b) the occurrence of multiple sets of optimal material parameters for the same data sets. This multiplicity can lead to very different numerical solutions for a given boundary-value problem, and this is illustrated for a simple example.}
      \field{issn}{1432-0924}
      \field{journaltitle}{Computational Mechanics}
      \field{month}{11}
      \field{number}{6}
      \field{title}{Fitting hyperelastic models to experimental data}
      \field{volume}{34}
      \field{year}{2004}
      \field{pages}{484\bibrangedash 502}
      \range{pages}{19}
      \verb{doi}
      \verb 10.1007/s00466-004-0593-y
      \endverb
      \verb{urlraw}
      \verb https://doi.org/10.1007/s00466-004-0593-y
      \endverb
      \verb{url}
      \verb https://doi.org/10.1007/s00466-004-0593-y
      \endverb
    \endentry
  \enddatalist
\endrefsection
\endinput

