\boolfalse {citerequest}\boolfalse {citetracker}\boolfalse {pagetracker}\boolfalse {backtracker}\relax 
\defcounter {refsection}{0}\relax 
\beamer@endinputifotherversion {3.36pt}
\defcounter {refsection}{0}\relax 
\select@language {english}
\defcounter {refsection}{0}\relax 
\beamer@sectionintoc {2}{Modified HGO UMAT Validation}{3}{0}{1}
\defcounter {refsection}{0}\relax 
\beamer@subsectionintoc {2}{1}{What I am trying to do}{3}{0}{1}
\defcounter {refsection}{0}\relax 
\beamer@subsectionintoc {2}{2}{How}{4}{0}{1}
\defcounter {refsection}{0}\relax 
\beamer@subsectionintoc {2}{3}{Exact solution for uniaxial tension under the modified HGO model}{5}{0}{1}
