\defcounter {refsection}{0}\relax 
\beamer@endinputifotherversion {3.36pt}
\defcounter {refsection}{0}\relax 
\headcommand {\slideentry {0}{0}{1}{1/1}{}{0}}
\defcounter {refsection}{0}\relax 
\headcommand {\beamer@framepages {1}{1}}
\defcounter {refsection}{0}\relax 
\headcommand {\slideentry {1}{0}{1}{2/2}{}{0}}
\defcounter {refsection}{0}\relax 
\headcommand {\beamer@framepages {2}{2}}
\defcounter {refsection}{0}\relax 
\headcommand {\sectionentry {2}{Modified HGO UMAT Validation}{3}{Modified HGO UMAT Validation}{0}}
\defcounter {refsection}{0}\relax 
\headcommand {\beamer@sectionpages {2}{2}}
\defcounter {refsection}{0}\relax 
\headcommand {\beamer@subsectionpages {2}{2}}
\defcounter {refsection}{0}\relax 
\headcommand {\beamer@subsectionentry {0}{2}{1}{3}{What I am trying to do}}\headcommand {\beamer@subsectionpages {3}{2}}
\defcounter {refsection}{0}\relax 
\headcommand {\slideentry {2}{1}{1}{3/3}{What I am trying to do}{0}}
\defcounter {refsection}{0}\relax 
\headcommand {\beamer@framepages {3}{3}}
\defcounter {refsection}{0}\relax 
\headcommand {\beamer@subsectionentry {0}{2}{2}{4}{How}}\headcommand {\beamer@subsectionpages {3}{3}}
\defcounter {refsection}{0}\relax 
\headcommand {\slideentry {2}{2}{1}{4/4}{How}{0}}
\defcounter {refsection}{0}\relax 
\headcommand {\beamer@framepages {4}{4}}
\defcounter {refsection}{0}\relax 
\headcommand {\beamer@subsectionentry {0}{2}{3}{5}{Exact solution for uniaxial tension under the modified HGO model}}\headcommand {\beamer@subsectionpages {4}{4}}
\defcounter {refsection}{0}\relax 
\headcommand {\slideentry {2}{3}{1}{5/5}{Exact solution for uniaxial tension under the modified HGO model}{0}}
\defcounter {refsection}{0}\relax 
\headcommand {\beamer@framepages {5}{5}}
\defcounter {refsection}{0}\relax 
\headcommand {\slideentry {2}{3}{2}{6/6}{Exact solution for uniaxial tension under the modified HGO model}{0}}
\defcounter {refsection}{0}\relax 
\headcommand {\beamer@framepages {6}{6}}
\defcounter {refsection}{0}\relax 
\headcommand {\slideentry {2}{3}{3}{7/7}{Exact solution for uniaxial tension under the modified HGO model}{0}}
\defcounter {refsection}{0}\relax 
\headcommand {\beamer@framepages {7}{7}}
\defcounter {refsection}{0}\relax 
\headcommand {\slideentry {2}{3}{4}{8/8}{Exact solution for uniaxial tension under the modified HGO model}{0}}
\defcounter {refsection}{0}\relax 
\headcommand {\beamer@framepages {8}{8}}
\defcounter {refsection}{0}\relax 
\headcommand {\slideentry {2}{3}{5}{9/9}{Exact solution for uniaxial tension under the modified HGO model}{0}}
\defcounter {refsection}{0}\relax 
\headcommand {\beamer@framepages {9}{9}}
\defcounter {refsection}{0}\relax 
\headcommand {\slideentry {2}{3}{6}{10/10}{Exact solution for uniaxial tension under the modified HGO model}{0}}
\defcounter {refsection}{0}\relax 
\headcommand {\beamer@framepages {10}{10}}
\defcounter {refsection}{0}\relax 
\headcommand {\slideentry {2}{3}{7}{11/11}{Exact solution for uniaxial tension under the modified HGO model}{0}}
\defcounter {refsection}{0}\relax 
\headcommand {\beamer@framepages {11}{11}}
\defcounter {refsection}{0}\relax 
\headcommand {\slideentry {2}{3}{8}{12/12}{Exact solution for uniaxial tension under the modified HGO model}{0}}
\defcounter {refsection}{0}\relax 
\headcommand {\beamer@framepages {12}{12}}
\headcommand {\beamer@partpages {1}{12}}
\headcommand {\beamer@subsectionpages {5}{12}}
\headcommand {\beamer@sectionpages {3}{12}}
\headcommand {\beamer@documentpages {12}}
\headcommand {\def \inserttotalframenumber {13}}
