\relax 
\providecommand\hyper@newdestlabel[2]{}
\providecommand\HyperFirstAtBeginDocument{\AtBeginDocument}
\HyperFirstAtBeginDocument{\ifx\hyper@anchor\@undefined
\global\let\oldcontentsline\contentsline
\gdef\contentsline#1#2#3#4{\oldcontentsline{#1}{#2}{#3}}
\global\let\oldnewlabel\newlabel
\gdef\newlabel#1#2{\newlabelxx{#1}#2}
\gdef\newlabelxx#1#2#3#4#5#6{\oldnewlabel{#1}{{#2}{#3}}}
\AtEndDocument{\ifx\hyper@anchor\@undefined
\let\contentsline\oldcontentsline
\let\newlabel\oldnewlabel
\fi}
\fi}
\global\let\hyper@last\relax 
\gdef\HyperFirstAtBeginDocument#1{#1}
\providecommand\HyField@AuxAddToFields[1]{}
\providecommand\HyField@AuxAddToCoFields[2]{}
\abx@aux@sortscheme{nty}
\abx@aux@sortnamekeyscheme{global}
\@writefile{toc}{\boolfalse {citerequest}\boolfalse {citetracker}\boolfalse {pagetracker}\boolfalse {backtracker}\relax }
\@writefile{lof}{\boolfalse {citerequest}\boolfalse {citetracker}\boolfalse {pagetracker}\boolfalse {backtracker}\relax }
\@writefile{lot}{\boolfalse {citerequest}\boolfalse {citetracker}\boolfalse {pagetracker}\boolfalse {backtracker}\relax }
\@writefile{toc}{\defcounter {refsection}{0}\relax }\@writefile{toc}{\beamer@endinputifotherversion {3.36pt}}
\@writefile{nav}{\defcounter {refsection}{0}\relax }\@writefile{nav}{\beamer@endinputifotherversion {3.36pt}}
\select@language{english}
\@writefile{toc}{\defcounter {refsection}{0}\relax }\@writefile{toc}{\select@language{english}}
\@writefile{lof}{\defcounter {refsection}{0}\relax }\@writefile{lof}{\select@language{english}}
\@writefile{lot}{\defcounter {refsection}{0}\relax }\@writefile{lot}{\select@language{english}}
\@writefile{nav}{\defcounter {refsection}{0}\relax }\@writefile{nav}{\headcommand {\slideentry {0}{0}{1}{1/1}{}{0}}}
\@writefile{nav}{\defcounter {refsection}{0}\relax }\@writefile{nav}{\headcommand {\beamer@framepages {1}{1}}}
\@writefile{nav}{\defcounter {refsection}{0}\relax }\@writefile{nav}{\headcommand {\slideentry {1}{0}{1}{2/2}{}{0}}}
\@writefile{nav}{\defcounter {refsection}{0}\relax }\@writefile{nav}{\headcommand {\beamer@framepages {2}{2}}}
\@writefile{toc}{\defcounter {refsection}{0}\relax }\@writefile{toc}{\beamer@sectionintoc {2}{Modified HGO UMAT Validation}{3}{0}{1}}
\@writefile{nav}{\defcounter {refsection}{0}\relax }\@writefile{nav}{\headcommand {\sectionentry {2}{Modified HGO UMAT Validation}{3}{Modified HGO UMAT Validation}{0}}}
\@writefile{nav}{\defcounter {refsection}{0}\relax }\@writefile{nav}{\headcommand {\beamer@sectionpages {2}{2}}}
\@writefile{nav}{\defcounter {refsection}{0}\relax }\@writefile{nav}{\headcommand {\beamer@subsectionpages {2}{2}}}
\@writefile{toc}{\defcounter {refsection}{0}\relax }\@writefile{toc}{\beamer@subsectionintoc {2}{1}{What I am trying to do}{3}{0}{1}}
\@writefile{nav}{\defcounter {refsection}{0}\relax }\@writefile{nav}{\headcommand {\beamer@subsectionentry {0}{2}{1}{3}{What I am trying to do}}\headcommand {\beamer@subsectionpages {3}{2}}}
\@writefile{nav}{\defcounter {refsection}{0}\relax }\@writefile{nav}{\headcommand {\slideentry {2}{1}{1}{3/3}{What I am trying to do}{0}}}
\@writefile{nav}{\defcounter {refsection}{0}\relax }\@writefile{nav}{\headcommand {\beamer@framepages {3}{3}}}
\@writefile{toc}{\defcounter {refsection}{0}\relax }\@writefile{toc}{\beamer@subsectionintoc {2}{2}{How}{4}{0}{1}}
\@writefile{nav}{\defcounter {refsection}{0}\relax }\@writefile{nav}{\headcommand {\beamer@subsectionentry {0}{2}{2}{4}{How}}\headcommand {\beamer@subsectionpages {3}{3}}}
\@writefile{nav}{\defcounter {refsection}{0}\relax }\@writefile{nav}{\headcommand {\slideentry {2}{2}{1}{4/4}{How}{0}}}
\@writefile{nav}{\defcounter {refsection}{0}\relax }\@writefile{nav}{\headcommand {\beamer@framepages {4}{4}}}
\@writefile{toc}{\defcounter {refsection}{0}\relax }\@writefile{toc}{\beamer@subsectionintoc {2}{3}{Exact solution for uniaxial tension under the modified HGO model}{5}{0}{1}}
\@writefile{nav}{\defcounter {refsection}{0}\relax }\@writefile{nav}{\headcommand {\beamer@subsectionentry {0}{2}{3}{5}{Exact solution for uniaxial tension under the modified HGO model}}\headcommand {\beamer@subsectionpages {4}{4}}}
\@writefile{nav}{\defcounter {refsection}{0}\relax }\@writefile{nav}{\headcommand {\slideentry {2}{3}{1}{5/5}{Exact solution for uniaxial tension under the modified HGO model}{0}}}
\@writefile{nav}{\defcounter {refsection}{0}\relax }\@writefile{nav}{\headcommand {\beamer@framepages {5}{5}}}
\@writefile{nav}{\defcounter {refsection}{0}\relax }\@writefile{nav}{\headcommand {\slideentry {2}{3}{2}{6/6}{Exact solution for uniaxial tension under the modified HGO model}{0}}}
\@writefile{nav}{\defcounter {refsection}{0}\relax }\@writefile{nav}{\headcommand {\beamer@framepages {6}{6}}}
\@writefile{nav}{\defcounter {refsection}{0}\relax }\@writefile{nav}{\headcommand {\slideentry {2}{3}{3}{7/7}{Exact solution for uniaxial tension under the modified HGO model}{0}}}
\@writefile{nav}{\defcounter {refsection}{0}\relax }\@writefile{nav}{\headcommand {\beamer@framepages {7}{7}}}
\@writefile{nav}{\defcounter {refsection}{0}\relax }\@writefile{nav}{\headcommand {\slideentry {2}{3}{4}{8/8}{Exact solution for uniaxial tension under the modified HGO model}{0}}}
\@writefile{nav}{\defcounter {refsection}{0}\relax }\@writefile{nav}{\headcommand {\beamer@framepages {8}{8}}}
\@writefile{nav}{\defcounter {refsection}{0}\relax }\@writefile{nav}{\headcommand {\slideentry {2}{3}{5}{9/9}{Exact solution for uniaxial tension under the modified HGO model}{0}}}
\@writefile{nav}{\defcounter {refsection}{0}\relax }\@writefile{nav}{\headcommand {\beamer@framepages {9}{9}}}
\@writefile{nav}{\defcounter {refsection}{0}\relax }\@writefile{nav}{\headcommand {\slideentry {2}{3}{6}{10/10}{Exact solution for uniaxial tension under the modified HGO model}{0}}}
\@writefile{nav}{\defcounter {refsection}{0}\relax }\@writefile{nav}{\headcommand {\beamer@framepages {10}{10}}}
\@writefile{nav}{\defcounter {refsection}{0}\relax }\@writefile{nav}{\headcommand {\slideentry {2}{3}{7}{11/11}{Exact solution for uniaxial tension under the modified HGO model}{0}}}
\@writefile{nav}{\defcounter {refsection}{0}\relax }\@writefile{nav}{\headcommand {\beamer@framepages {11}{11}}}
\@writefile{nav}{\defcounter {refsection}{0}\relax }\@writefile{nav}{\headcommand {\slideentry {2}{3}{8}{12/12}{Exact solution for uniaxial tension under the modified HGO model}{0}}}
\@writefile{nav}{\defcounter {refsection}{0}\relax }\@writefile{nav}{\headcommand {\beamer@framepages {12}{12}}}
\@writefile{nav}{\headcommand {\beamer@partpages {1}{12}}}
\@writefile{nav}{\headcommand {\beamer@subsectionpages {5}{12}}}
\@writefile{nav}{\headcommand {\beamer@sectionpages {3}{12}}}
\@writefile{nav}{\headcommand {\beamer@documentpages {12}}}
\@writefile{nav}{\headcommand {\def \inserttotalframenumber {13}}}
